%YAML 1.1
%TAG !u! tag:unity3d.com,2011:
--- !u!1 &872891347357015767
GameObject:
  m_ObjectHideFlags: 0
  m_CorrespondingSourceObject: {fileID: 0}
  m_PrefabInstance: {fileID: 0}
  m_PrefabAsset: {fileID: 0}
  serializedVersion: 6
  m_Component:
  - component: {fileID: 872891347357015760}
  - component: {fileID: 872891347357015763}
  - component: {fileID: 872891347357015762}
  - component: {fileID: 872891347357015765}
  - component: {fileID: 872891347357015761}
  - component: {fileID: 872891347357015764}
  - component: {fileID: 872891347357015774}
  - component: {fileID: 6141698511507055570}
  m_Layer: 0
  m_Name: RightController
  m_TagString: Untagged
  m_Icon: {fileID: 0}
  m_NavMeshLayer: 0
  m_StaticEditorFlags: 0
  m_IsActive: 1
--- !u!4 &872891347357015760
Transform:
  m_ObjectHideFlags: 0
  m_CorrespondingSourceObject: {fileID: 0}
  m_PrefabInstance: {fileID: 0}
  m_PrefabAsset: {fileID: 0}
  m_GameObject: {fileID: 872891347357015767}
  m_LocalRotation: {x: 0, y: 0, z: 0, w: 1}
  m_LocalPosition: {x: 0, y: 0, z: 0}
  m_LocalScale: {x: 1, y: 1, z: 1}
  m_Children:
  - {fileID: 835307175583472343}
  m_Father: {fileID: 0}
  m_RootOrder: 0
  m_LocalEulerAnglesHint: {x: 0, y: 0, z: 0}
--- !u!114 &872891347357015763
MonoBehaviour:
  m_ObjectHideFlags: 0
  m_CorrespondingSourceObject: {fileID: 0}
  m_PrefabInstance: {fileID: 0}
  m_PrefabAsset: {fileID: 0}
  m_GameObject: {fileID: 872891347357015767}
  m_Enabled: 1
  m_EditorHideFlags: 0
  m_Script: {fileID: 11500000, guid: 740561eacacffbb439cef2837d82fc20, type: 3}
  m_Name: 
  m_EditorClassIdentifier: 
  nodeToAttachWith: 5
  positionOffset: {x: 0, y: 0, z: 0}
  rotationOffset: {x: 0, y: 0, z: 0}
--- !u!114 &872891347357015762
MonoBehaviour:
  m_ObjectHideFlags: 0
  m_CorrespondingSourceObject: {fileID: 0}
  m_PrefabInstance: {fileID: 0}
  m_PrefabAsset: {fileID: 0}
  m_GameObject: {fileID: 872891347357015767}
  m_Enabled: 1
  m_EditorHideFlags: 0
  m_Script: {fileID: 11500000, guid: 899c81eae4e4db546bc7045d736c30ac, type: 3}
  m_Name: 
  m_EditorClassIdentifier: 
  controller: 2
  teleportationRingPrefab: {fileID: 357656537403783381, guid: 2589b2e7f5ff22142b92fc11f0979964,
    type: 3}
  floorPosition: 1
  lineWidth: 0.02
  lineColor: {r: 0, g: 0.68773, b: 1, a: 0.5372549}
  lineRenderer: {fileID: 872891347357015764}
--- !u!114 &872891347357015765
MonoBehaviour:
  m_ObjectHideFlags: 0
  m_CorrespondingSourceObject: {fileID: 0}
  m_PrefabInstance: {fileID: 0}
  m_PrefabAsset: {fileID: 0}
  m_GameObject: {fileID: 872891347357015767}
  m_Enabled: 1
  m_EditorHideFlags: 0
  m_Script: {fileID: 11500000, guid: c3471919108925e40b5076790f00047c, type: 3}
  m_Name: 
  m_EditorClassIdentifier: 
  controller: 2
  rotateStep: 30
--- !u!114 &872891347357015761
MonoBehaviour:
  m_ObjectHideFlags: 0
  m_CorrespondingSourceObject: {fileID: 0}
  m_PrefabInstance: {fileID: 0}
  m_PrefabAsset: {fileID: 0}
  m_GameObject: {fileID: 872891347357015767}
  m_Enabled: 1
  m_EditorHideFlags: 0
  m_Script: {fileID: 11500000, guid: 5dc2c0f5acfb34247abde3fdde27456f, type: 3}
  m_Name: 
  m_EditorClassIdentifier: 
  crumbpledPaperPrefab: {fileID: 0}
  otherController: {fileID: 0}
  distanceToCrumblePaper: 0.1
  debug: 0
  penRot: 0
  penTransform: {x: 0, y: 0, z: 0}
  _activeGameObject: {fileID: 0}
  controller: 2
  _grabbing: 0
  _throwStrength: 1
  _distanceIgnore: 0.0005
--- !u!120 &872891347357015764
LineRenderer:
  m_ObjectHideFlags: 0
  m_CorrespondingSourceObject: {fileID: 0}
  m_PrefabInstance: {fileID: 0}
  m_PrefabAsset: {fileID: 0}
  m_GameObject: {fileID: 872891347357015767}
  m_Enabled: 1
  m_CastShadows: 0
  m_ReceiveShadows: 0
  m_DynamicOccludee: 1
  m_MotionVectors: 0
  m_LightProbeUsage: 0
  m_ReflectionProbeUsage: 0
  m_RayTracingMode: 0
  m_RenderingLayerMask: 1
  m_RendererPriority: 0
  m_Materials:
  - {fileID: 2100000, guid: 650ceff781601c94eb9a8db4ad8e2b6d, type: 2}
  m_StaticBatchInfo:
    firstSubMesh: 0
    subMeshCount: 0
  m_StaticBatchRoot: {fileID: 0}
  m_ProbeAnchor: {fileID: 0}
  m_LightProbeVolumeOverride: {fileID: 0}
  m_ScaleInLightmap: 1
  m_ReceiveGI: 1
  m_PreserveUVs: 0
  m_IgnoreNormalsForChartDetection: 0
  m_ImportantGI: 0
  m_StitchLightmapSeams: 1
  m_SelectedEditorRenderState: 3
  m_MinimumChartSize: 4
  m_AutoUVMaxDistance: 0.5
  m_AutoUVMaxAngle: 89
  m_LightmapParameters: {fileID: 0}
  m_SortingLayerID: 0
  m_SortingLayer: 0
  m_SortingOrder: 0
  m_Positions:
  - {x: 0, y: 0, z: 0}
  - {x: 0, y: 0, z: 1}
  m_Parameters:
    serializedVersion: 3
    widthMultiplier: 1
    widthCurve:
      serializedVersion: 2
      m_Curve:
      - serializedVersion: 3
        time: 0
        value: 1
        inSlope: 0
        outSlope: 0
        tangentMode: 0
        weightedMode: 0
        inWeight: 0.33333334
        outWeight: 0.33333334
      m_PreInfinity: 2
      m_PostInfinity: 2
      m_RotationOrder: 4
    colorGradient:
      serializedVersion: 2
      key0: {r: 1, g: 1, b: 1, a: 1}
      key1: {r: 1, g: 1, b: 1, a: 1}
      key2: {r: 0, g: 0, b: 0, a: 0}
      key3: {r: 0, g: 0, b: 0, a: 0}
      key4: {r: 0, g: 0, b: 0, a: 0}
      key5: {r: 0, g: 0, b: 0, a: 0}
      key6: {r: 0, g: 0, b: 0, a: 0}
      key7: {r: 0, g: 0, b: 0, a: 0}
      ctime0: 0
      ctime1: 65535
      ctime2: 0
      ctime3: 0
      ctime4: 0
      ctime5: 0
      ctime6: 0
      ctime7: 0
      atime0: 0
      atime1: 65535
      atime2: 0
      atime3: 0
      atime4: 0
      atime5: 0
      atime6: 0
      atime7: 0
      m_Mode: 0
      m_NumColorKeys: 2
      m_NumAlphaKeys: 2
    numCornerVertices: 0
    numCapVertices: 0
    alignment: 0
    textureMode: 0
    shadowBias: 0.5
    generateLightingData: 0
  m_UseWorldSpace: 1
  m_Loop: 0
--- !u!65 &872891347357015774
BoxCollider:
  m_ObjectHideFlags: 0
  m_CorrespondingSourceObject: {fileID: 0}
  m_PrefabInstance: {fileID: 0}
  m_PrefabAsset: {fileID: 0}
  m_GameObject: {fileID: 872891347357015767}
  m_Material: {fileID: 0}
  m_IsTrigger: 1
  m_Enabled: 1
  serializedVersion: 2
  m_Size: {x: 0.1, y: 0.1, z: 0.1}
  m_Center: {x: -0.03, y: -0.03, z: -0.03}
--- !u!114 &6141698511507055570
MonoBehaviour:
  m_ObjectHideFlags: 0
  m_CorrespondingSourceObject: {fileID: 0}
  m_PrefabInstance: {fileID: 0}
  m_PrefabAsset: {fileID: 0}
  m_GameObject: {fileID: 872891347357015767}
  m_Enabled: 1
  m_EditorHideFlags: 0
  m_Script: {fileID: 11500000, guid: 1d3adfff378a28543938cbd99752ae36, type: 3}
  m_Name: 
  m_EditorClassIdentifier: 
  controller: 2
--- !u!1001 &872891346980027708
PrefabInstance:
  m_ObjectHideFlags: 0
  serializedVersion: 2
  m_Modification:
    m_TransformParent: {fileID: 872891347357015760}
    m_Modifications:
    - target: {fileID: -8679921383154817045, guid: bea66f6940e3c1d438b87c7480e6a3ff,
        type: 3}
      propertyPath: m_LocalPosition.x
      value: 0
      objectReference: {fileID: 0}
    - target: {fileID: -8679921383154817045, guid: bea66f6940e3c1d438b87c7480e6a3ff,
        type: 3}
      propertyPath: m_LocalPosition.y
      value: 0
      objectReference: {fileID: 0}
    - target: {fileID: -8679921383154817045, guid: bea66f6940e3c1d438b87c7480e6a3ff,
        type: 3}
      propertyPath: m_LocalPosition.z
      value: -0.098
      objectReference: {fileID: 0}
    - target: {fileID: -8679921383154817045, guid: bea66f6940e3c1d438b87c7480e6a3ff,
        type: 3}
      propertyPath: m_LocalRotation.x
      value: -0
      objectReference: {fileID: 0}
    - target: {fileID: -8679921383154817045, guid: bea66f6940e3c1d438b87c7480e6a3ff,
        type: 3}
      propertyPath: m_LocalRotation.y
      value: 0.7071068
      objectReference: {fileID: 0}
    - target: {fileID: -8679921383154817045, guid: bea66f6940e3c1d438b87c7480e6a3ff,
        type: 3}
      propertyPath: m_LocalRotation.z
      value: 0.7071068
      objectReference: {fileID: 0}
    - target: {fileID: -8679921383154817045, guid: bea66f6940e3c1d438b87c7480e6a3ff,
        type: 3}
      propertyPath: m_LocalRotation.w
      value: 0
      objectReference: {fileID: 0}
    - target: {fileID: -8679921383154817045, guid: bea66f6940e3c1d438b87c7480e6a3ff,
        type: 3}
      propertyPath: m_RootOrder
      value: 0
      objectReference: {fileID: 0}
    - target: {fileID: -8679921383154817045, guid: bea66f6940e3c1d438b87c7480e6a3ff,
        type: 3}
      propertyPath: m_LocalEulerAnglesHint.x
      value: -90
      objectReference: {fileID: 0}
    - target: {fileID: -8679921383154817045, guid: bea66f6940e3c1d438b87c7480e6a3ff,
        type: 3}
      propertyPath: m_LocalEulerAnglesHint.y
      value: 180
      objectReference: {fileID: 0}
    - target: {fileID: -8679921383154817045, guid: bea66f6940e3c1d438b87c7480e6a3ff,
        type: 3}
      propertyPath: m_LocalEulerAnglesHint.z
      value: 0
      objectReference: {fileID: 0}
    - target: {fileID: -8679921383154817045, guid: bea66f6940e3c1d438b87c7480e6a3ff,
        type: 3}
      propertyPath: m_LocalScale.x
      value: 100
      objectReference: {fileID: 0}
    - target: {fileID: -8679921383154817045, guid: bea66f6940e3c1d438b87c7480e6a3ff,
        type: 3}
      propertyPath: m_LocalScale.y
      value: 100.000046
      objectReference: {fileID: 0}
    - target: {fileID: -8679921383154817045, guid: bea66f6940e3c1d438b87c7480e6a3ff,
        type: 3}
      propertyPath: m_LocalScale.z
      value: 100.000046
      objectReference: {fileID: 0}
    - target: {fileID: 919132149155446097, guid: bea66f6940e3c1d438b87c7480e6a3ff,
        type: 3}
      propertyPath: m_Name
      value: rightController
      objectReference: {fileID: 0}
    m_RemovedComponents: []
  m_SourcePrefab: {fileID: 100100000, guid: bea66f6940e3c1d438b87c7480e6a3ff, type: 3}
--- !u!4 &835307175583472343 stripped
Transform:
  m_CorrespondingSourceObject: {fileID: -8679921383154817045, guid: bea66f6940e3c1d438b87c7480e6a3ff,
    type: 3}
  m_PrefabInstance: {fileID: 872891346980027708}
  m_PrefabAsset: {fileID: 0}
