# Blender v2.90.1 OBJ File: 'spider.blend'
# www.blender.org
o spider_leg_end_Cube.002
v 0.029903 -0.814410 0.029903
v 0.029903 -0.814409 -0.029903
v 0.018204 0.732420 -0.087524
v 0.018204 0.728424 -0.123409
v -0.029903 -0.814410 0.029903
v -0.029903 -0.814410 -0.029903
v -0.018204 0.732420 -0.087524
v -0.018204 0.728424 -0.123409
v 0.054822 -0.681634 0.054822
v 0.054822 -0.681634 -0.054822
v -0.054822 -0.681634 0.054822
v -0.054822 -0.681634 -0.054822
v 0.030620 0.606540 -0.098656
v -0.030620 0.617197 -0.038813
v 0.030620 0.617197 -0.038813
v -0.030620 0.606540 -0.098656
v 0.059575 -0.294626 0.059575
v -0.059575 -0.294626 -0.059575
v 0.059575 -0.294626 -0.059575
v -0.059575 -0.294626 0.059575
v 0.041862 0.247964 -0.054041
v -0.041862 0.250628 0.029333
v 0.041862 0.250628 0.029333
v -0.041862 0.247964 -0.054041
v 0.043641 -0.776262 0.043641
v 0.035038 -0.820693 -0.000000
v 0.025347 0.692940 -0.117855
v 0.021675 0.735885 -0.107755
v 0.000000 0.737911 -0.086346
v -0.000000 0.733859 -0.129165
v -0.021675 0.735885 -0.107755
v -0.025347 0.700794 -0.068191
v -0.043641 -0.776262 -0.043641
v -0.035038 -0.820693 -0.000000
v 0.000000 -0.820693 0.035038
v 0.000000 -0.820693 -0.035038
v 0.060571 -0.520118 0.060571
v 0.043641 -0.776262 -0.043641
v -0.043641 -0.776262 0.043641
v -0.060571 -0.520118 -0.060571
v 0.000000 -0.681634 -0.075380
v 0.000000 -0.681634 0.075380
v -0.075380 -0.681634 -0.000000
v 0.075380 -0.681634 -0.000000
v 0.035227 0.459677 -0.072658
v -0.035227 0.467336 -0.003208
v 0.025347 0.700794 -0.068191
v -0.025347 0.692940 -0.117855
v -0.042102 0.611868 -0.068735
v 0.000000 0.619195 -0.027593
v -0.000000 0.604542 -0.109877
v 0.042102 0.611868 -0.068735
v 0.051628 -0.020442 0.050062
v -0.051628 -0.020775 -0.053151
v 0.060571 -0.520118 -0.060571
v -0.060571 -0.520118 0.060571
v 0.081916 -0.294626 -0.000000
v -0.081916 -0.294626 -0.000000
v 0.000000 -0.294626 0.081916
v -0.000000 -0.294626 -0.081916
v 0.051628 -0.020775 -0.053151
v -0.051628 -0.020442 0.050062
v 0.035227 0.467336 -0.003208
v -0.035227 0.459677 -0.072658
v -0.000000 0.247465 -0.069674
v 0.000000 0.251128 0.044966
v -0.057560 0.249296 -0.012354
v 0.057560 0.249296 -0.012354
v 0.034766 0.697406 -0.093249
v -0.000000 0.747350 -0.112560
v -0.059743 -0.776882 -0.000000
v -0.000000 -0.833880 -0.000000
v 0.000000 -0.776882 0.059743
v -0.000000 -0.776882 -0.059744
v 0.000000 -0.520118 -0.083286
v -0.000000 -0.520118 0.083286
v -0.083286 -0.520118 -0.000000
v 0.059743 -0.776882 -0.000000
v -0.034766 0.697405 -0.093249
v 0.000000 0.702720 -0.059180
v -0.000000 0.692091 -0.127318
v 0.048437 0.463506 -0.037933
v 0.083286 -0.520118 -0.000000
v -0.070989 -0.020608 -0.001544
v -0.000000 -0.020379 0.069415
v 0.000000 -0.020837 -0.072503
v 0.000000 0.458241 -0.085679
v -0.000000 0.468772 0.009814
v -0.048437 0.463506 -0.037933
v 0.070989 -0.020608 -0.001544
vt 0.375000 0.223432
vt 0.500000 0.223432
vt 0.500000 0.244179
vt 0.375000 0.244179
vt 0.625000 0.223432
vt 0.625000 0.244179
vt 0.625000 0.288421
vt 0.500000 0.288421
vt 0.375000 0.288421
vt 0.500000 0.374865
vt 0.369792 0.374594
vt 0.630208 0.374594
vt 0.666667 0.458333
vt 0.500000 0.461038
vt 0.333333 0.458333
vt 0.375000 0.726063
vt 0.500000 0.726063
vt 0.500000 0.745603
vt 0.371528 0.744912
vt 0.625000 0.726063
vt 0.628472 0.744912
vt 0.666667 0.791667
vt 0.500000 0.789305
vt 0.333333 0.791667
vt 0.500000 0.879972
vt 0.369792 0.880208
vt 0.630208 0.880208
vt 0.625000 1.000000
vt 0.500000 1.000000
vt 0.375000 1.000000
vt 0.125000 0.726063
vt 0.250000 0.726063
vt 0.249132 0.741499
vt 0.125000 0.740631
vt 0.244792 0.755208
vt 0.125000 0.750000
vt 0.750000 0.726063
vt 0.750868 0.741499
vt 0.875000 0.726063
vt 0.875000 0.740631
vt 0.875000 0.750000
vt 0.755208 0.755208
vt 0.625000 0.668683
vt 0.750000 0.668683
vt 0.750000 0.702115
vt 0.625000 0.702115
vt 0.875000 0.668683
vt 0.875000 0.702115
vt 0.125000 0.668683
vt 0.250000 0.668683
vt 0.250000 0.702115
vt 0.125000 0.702115
vt 0.375000 0.668683
vt 0.375000 0.702115
vt 0.500000 0.668683
vt 0.500000 0.702115
vt 0.375000 0.000000
vt 0.500000 0.000000
vt 0.500000 0.009369
vt 0.375000 0.009369
vt 0.625000 0.000000
vt 0.625000 0.009369
vt 0.625000 0.023938
vt 0.500000 0.023938
vt 0.375000 0.023938
vt 0.500000 0.505686
vt 0.371528 0.506351
vt 0.628472 0.506351
vt 0.625000 0.526568
vt 0.500000 0.526568
vt 0.375000 0.526568
vt 0.125000 0.500000
vt 0.244792 0.494792
vt 0.249132 0.509756
vt 0.125000 0.510624
vt 0.250000 0.526568
vt 0.125000 0.526568
vt 0.755208 0.494792
vt 0.750868 0.509756
vt 0.875000 0.500000
vt 0.875000 0.510624
vt 0.875000 0.526568
vt 0.750000 0.526568
vt 0.375000 0.163348
vt 0.500000 0.163348
vt 0.500000 0.197979
vt 0.375000 0.197979
vt 0.625000 0.163348
vt 0.625000 0.197979
vt 0.500000 0.047885
vt 0.375000 0.047885
vt 0.625000 0.047885
vt 0.625000 0.081317
vt 0.500000 0.081317
vt 0.375000 0.081317
vt 0.375000 0.586652
vt 0.500000 0.586652
vt 0.500000 0.627882
vt 0.375000 0.627882
vt 0.625000 0.586652
vt 0.625000 0.627882
vt 0.125000 0.586652
vt 0.250000 0.586652
vt 0.250000 0.627882
vt 0.125000 0.627882
vt 0.750000 0.586652
vt 0.750000 0.627882
vt 0.875000 0.586652
vt 0.875000 0.627882
vt 0.750000 0.552021
vt 0.625000 0.552022
vt 0.875000 0.552021
vt 0.250000 0.552021
vt 0.125000 0.552021
vt 0.375000 0.552022
vt 0.500000 0.552022
vt 0.500000 0.122118
vt 0.375000 0.122118
vt 0.625000 0.122118
vn 0.6959 0.2313 0.6798
vn 0.9980 0.0634 -0.0026
vn 0.9825 0.1845 -0.0256
vn 0.6728 0.3930 0.6267
vn 0.7100 -0.1058 -0.6962
vn 0.7085 -0.0292 -0.7050
vn 0.6342 0.3066 -0.7097
vn 0.7478 0.6553 -0.1062
vn 0.5849 0.6552 0.4781
vn 0.0000 0.9823 -0.1872
vn 0.0000 0.8271 0.5620
vn 0.0000 0.4570 -0.8894
vn -0.6342 0.3066 -0.7097
vn -0.7478 0.6553 -0.1062
vn -0.5849 0.6552 0.4781
vn -0.7031 -0.1066 0.7031
vn -0.9946 -0.1039 0.0000
vn -0.9512 -0.3086 0.0000
vn -0.6709 -0.3156 0.6709
vn -0.7031 -0.1066 -0.7031
vn -0.6709 -0.3156 -0.6709
vn -0.5342 -0.6551 -0.5342
vn -0.6440 -0.7650 0.0000
vn -0.5342 -0.6551 0.5342
vn 0.0000 -1.0000 0.0000
vn 0.0000 -0.7650 0.6440
vn 0.0000 -0.7650 -0.6440
vn 0.5342 -0.6551 -0.5342
vn 0.6440 -0.7650 0.0000
vn 0.5342 -0.6551 0.5342
vn 0.7031 -0.1066 0.7031
vn 0.0000 -0.1039 0.9946
vn 0.0000 -0.3086 0.9512
vn 0.6709 -0.3156 0.6709
vn 0.0000 -0.1039 -0.9946
vn 0.0000 -0.3086 -0.9512
vn 0.7031 -0.1066 -0.7031
vn 0.6709 -0.3156 -0.6709
vn -0.7072 0.0216 -0.7066
vn 0.0000 0.0201 -0.9998
vn 0.0000 -0.0213 -0.9998
vn -0.7069 -0.0219 -0.7069
vn 0.7072 0.0216 -0.7066
vn 0.7069 -0.0219 -0.7069
vn 0.7065 0.0255 0.7072
vn 0.0000 0.0257 0.9997
vn 0.0000 -0.0213 0.9998
vn 0.7069 -0.0219 0.7069
vn -0.7065 0.0255 0.7072
vn -0.7069 -0.0219 0.7069
vn -0.9997 0.0229 0.0006
vn -0.9998 -0.0213 0.0000
vn 0.9512 -0.3086 0.0000
vn 0.9946 -0.1039 0.0000
vn -0.9825 0.1845 -0.0256
vn -0.6728 0.3930 0.6267
vn -0.7085 -0.0292 -0.7050
vn -0.7100 -0.1058 -0.6962
vn -0.9980 0.0634 -0.0027
vn -0.6959 0.2313 0.6798
vn 0.0000 0.4701 0.8826
vn 0.0000 0.2962 0.9551
vn 0.0000 -0.1291 -0.9916
vn 0.0000 -0.1792 -0.9838
vn 0.6994 0.1031 0.7072
vn 0.9988 0.0471 0.0067
vn 0.9990 0.0437 0.0048
vn 0.6980 0.1563 0.6988
vn 0.7113 -0.0077 -0.7028
vn 0.7113 -0.0699 -0.6993
vn 0.9998 -0.0213 0.0000
vn 0.9997 0.0229 0.0006
vn -0.6994 0.1031 0.7072
vn -0.9988 0.0471 0.0067
vn -0.9990 0.0449 0.0033
vn -0.7036 0.0620 0.7079
vn -0.7113 -0.0077 -0.7028
vn -0.7086 0.0303 -0.7049
vn 0.0000 0.1239 0.9923
vn 0.0000 0.0673 0.9977
vn 0.7036 0.0620 0.7079
vn 0.0000 -0.0327 -0.9995
vn 0.0000 0.0224 -0.9997
vn 0.7086 0.0303 -0.7049
vn 0.0000 -0.1197 -0.9928
vn -0.7113 -0.0699 -0.6993
vn 0.0000 0.1999 0.9798
vn -0.6980 0.1563 0.6988
vn -0.9990 0.0437 0.0048
vn 0.9990 0.0449 0.0033
s 1
f 15/1/1 52/2/2 69/3/3 47/4/4
f 52/2/2 13/5/5 27/6/6 69/3/3
f 69/3/3 27/6/6 4/7/7 28/8/8
f 47/4/4 69/3/3 28/8/8 3/9/9
f 3/9/9 28/8/8 70/10/10 29/11/11
f 28/8/8 4/7/7 30/12/12 70/10/10
f 70/10/10 30/12/12 8/13/13 31/14/14
f 29/11/11 70/10/10 31/14/14 7/15/15
f 11/16/16 43/17/17 71/18/18 39/19/19
f 43/17/17 12/20/20 33/21/21 71/18/18
f 71/18/18 33/21/21 6/22/22 34/23/23
f 39/19/19 71/18/18 34/23/23 5/24/24
f 5/24/24 34/23/23 72/25/25 35/26/26
f 34/23/23 6/22/22 36/27/27 72/25/25
f 72/25/25 36/27/27 2/28/28 26/29/29
f 35/26/26 72/25/25 26/29/29 1/30/30
f 9/31/31 42/32/32 73/33/33 25/34/34
f 42/32/32 11/16/16 39/19/19 73/33/33
f 73/33/33 39/19/19 5/24/24 35/35/26
f 25/34/34 73/33/33 35/35/26 1/36/30
f 12/20/20 41/37/35 74/38/36 33/21/21
f 41/37/35 10/39/37 38/40/38 74/38/36
f 74/38/36 38/40/38 2/41/28 36/42/27
f 33/21/21 74/38/36 36/42/27 6/22/22
f 18/43/39 60/44/40 75/45/41 40/46/42
f 60/44/40 19/47/43 55/48/44 75/45/41
f 75/45/41 55/48/44 10/39/37 41/37/35
f 40/46/42 75/45/41 41/37/35 12/20/20
f 17/49/45 59/50/46 76/51/47 37/52/48
f 59/50/46 20/53/49 56/54/50 76/51/47
f 76/51/47 56/54/50 11/16/16 42/32/32
f 37/52/48 76/51/47 42/32/32 9/31/31
f 20/53/49 58/55/51 77/56/52 56/54/50
f 58/55/51 18/43/39 40/46/42 77/56/52
f 77/56/52 40/46/42 12/20/20 43/17/17
f 56/54/50 77/56/52 43/17/17 11/16/16
f 1/57/30 26/58/29 78/59/53 25/60/34
f 26/58/29 2/61/28 38/62/38 78/59/53
f 78/59/53 38/62/38 10/63/37 44/64/54
f 25/60/34 78/59/53 44/64/54 9/65/31
f 7/15/15 31/14/14 79/66/55 32/67/56
f 31/14/14 8/13/13 48/68/57 79/66/55
f 79/66/55 48/68/57 16/69/58 49/70/59
f 32/67/56 79/66/55 49/70/59 14/71/60
f 3/72/9 29/73/11 80/74/61 47/75/4
f 29/73/11 7/15/15 32/67/56 80/74/61
f 80/74/61 32/67/56 14/71/60 50/76/62
f 47/75/4 80/74/61 50/76/62 15/77/1
f 8/13/13 30/78/12 81/79/63 48/68/57
f 30/78/12 4/80/7 27/81/6 81/79/63
f 81/79/63 27/81/6 13/82/5 51/83/64
f 48/68/57 81/79/63 51/83/64 16/69/58
f 23/84/65 68/85/66 82/86/67 63/87/68
f 68/85/66 21/88/69 45/89/70 82/86/67
f 82/86/67 45/89/70 13/5/5 52/2/2
f 63/87/68 82/86/67 52/2/2 15/1/1
f 9/65/31 44/64/54 83/90/71 37/91/48
f 44/64/54 10/63/37 55/92/44 83/90/71
f 83/90/71 55/92/44 19/93/43 57/94/72
f 37/91/48 83/90/71 57/94/72 17/95/45
f 22/96/73 67/97/74 84/98/75 62/99/76
f 67/97/74 24/100/77 54/101/78 84/98/75
f 84/98/75 54/101/78 18/43/39 58/55/51
f 62/99/76 84/98/75 58/55/51 20/53/49
f 23/102/65 66/103/79 85/104/80 53/105/81
f 66/103/79 22/96/73 62/99/76 85/104/80
f 85/104/80 62/99/76 20/53/49 59/50/46
f 53/105/81 85/104/80 59/50/46 17/49/45
f 24/100/77 65/106/82 86/107/83 54/101/78
f 65/106/82 21/108/69 61/109/84 86/107/83
f 86/107/83 61/109/84 19/47/43 60/44/40
f 54/101/78 86/107/83 60/44/40 18/43/39
f 16/69/58 51/83/64 87/110/85 64/111/86
f 51/83/64 13/82/5 45/112/70 87/110/85
f 87/110/85 45/112/70 21/108/69 65/106/82
f 64/111/86 87/110/85 65/106/82 24/100/77
f 15/77/1 50/76/62 88/113/87 63/114/68
f 50/76/62 14/71/60 46/115/88 88/113/87
f 88/113/87 46/115/88 22/96/73 66/103/79
f 63/114/68 88/113/87 66/103/79 23/102/65
f 14/71/60 49/70/59 89/116/89 46/115/88
f 49/70/59 16/69/58 64/111/86 89/116/89
f 89/116/89 64/111/86 24/100/77 67/97/74
f 46/115/88 89/116/89 67/97/74 22/96/73
f 17/95/45 57/94/72 90/117/90 53/118/81
f 57/94/72 19/93/43 61/119/84 90/117/90
f 90/117/90 61/119/84 21/88/69 68/85/66
f 53/118/81 90/117/90 68/85/66 23/84/65
